{
  "id":445571,
  "backdrops":[
    {
      "aspect_ratio":1.777777777777778,
      "file_path":"/jknYekTVH1n7doNVj5wiCMKhx7u.jpg",
      "height":720,
      "iso_639_1":null,
      "vote_average":5.312,
      "vote_count":1,
      "width":1280
    },
    {
      "aspect_ratio":1.777777777777778,
      "file_path":"/uZIcUfotFQKxhW0RNoczhhPTSxW.jpg",
      "height":1080,
      "iso_639_1":null,
      "vote_average":5.246,
      "vote_count":2,
      "width":1920
    }
  ],
  "posters":[
    {
      "aspect_ratio":0.6666666666666666,
      "file_path":"/1wS89vns6cseCn4UHSqj97xKEKW.jpg",
      "height":1500,
      "iso_639_1":"en",
      "vote_average":5.388,
      "vote_count":4,
      "width":1000
    },
    {
      "aspect_ratio":0.6666666666666666,
      "file_path":"/cAqZ2dC3LCVOfwUMsWgxEuLyg5j.jpg",
      "height":1500,
      "iso_639_1":"en",
      "vote_average":5.388,
      "vote_count":4,
      "width":1000
    },
    {
      "aspect_ratio":0.7,
      "file_path":"/uBAFcT9ByljWQZqBnBO5kDdgHVd.jpg",
      "height":1000,
      "iso_639_1":"zh",
      "vote_average":5.312,
      "vote_count":1,
      "width":700
    },
    {
      "aspect_ratio":0.6666666666666666,
      "file_path":"/sLwS10RHdczZhinC88qPANimbts.jpg",
      "height":1500,
      "iso_639_1":"ru",
      "vote_average":5.312,
      "vote_count":1,
      "width":1000
    },
    {
      "aspect_ratio":0.6666666666666666,
      "file_path":"/418KaWWuaZzi3UPqcxutkHqyCnB.jpg",
      "height":3000,
      "iso_639_1":"en",
      "vote_average":5.312,
      "vote_count":1,
      "width":2000
    },
    {
      "aspect_ratio":0.6661665416354089,
      "file_path":"/lXUSsWKaJMtMTnqQ1DjxzEZlQf8.jpg",
      "height":1333,
      "iso_639_1":"en",
      "vote_average":5.312,
      "vote_count":1,
      "width":888
    },
    {
      "aspect_ratio":0.6675977653631285,
      "file_path":"/zm9TZFoqRtLoXuF3w2ZeL85TPZf.jpg",
      "height":1432,
      "iso_639_1":"en",
      "vote_average":5.246,
      "vote_count":2,
      "width":956
    },
    {
      "aspect_ratio":0.6831767719897524,
      "file_path":"/bzae3zh84r7ihuq1EJ2UpbT5tFD.jpg",
      "height":1171,
      "iso_639_1":"ru",
      "vote_average":5.172,
      "vote_count":1,
      "width":800
    },
    {
      "aspect_ratio":0.6666666666666666,
      "file_path":"/pTP2tQwE2sdY1Cr0rX3LAV1XMR7.jpg",
      "height":750,
      "iso_639_1":"pt",
      "vote_average":0.0,
      "vote_count":0,
      "width":500
    },
    {
      "aspect_ratio":0.674,
      "file_path":"/vhRGZ8G6UZhZU3YVvnApSGj5oKL.jpg",
      "height":1000,
      "iso_639_1":"en",
      "vote_average":0.0,
      "vote_count":0,
      "width":674
    },
    {
      "aspect_ratio":0.675,
      "file_path":"/xCW4MRm8LxnuMSbe1OzwaTsrsvf.jpg",
      "height":1600,
      "iso_639_1":"da",
      "vote_average":0.0,
      "vote_count":0,
      "width":1080
    },
    {
      "aspect_ratio":0.6663493574488338,
      "file_path":"/gP15SUH7hygoovjGnzAYuGC4kIO.jpg",
      "height":2101,
      "iso_639_1":"bg",
      "vote_average":0.0,
      "vote_count":0,
      "width":1400
    },
    {
      "aspect_ratio":0.6920415224913494,
      "file_path":"/fCa4fbjtqI4m8OYykV8WHIpewUS.jpg",
      "height":1156,
      "iso_639_1":"bg",
      "vote_average":0.0,
      "vote_count":0,
      "width":800
    },
    {
      "aspect_ratio":0.6666666666666666,
      "file_path":"/yLiHKLLQ1PH6PQePlKhXHs8TlVC.jpg",
      "height":1080,
      "iso_639_1":"uk",
      "vote_average":0.0,
      "vote_count":0,
      "width":720
    },
    {
      "aspect_ratio":0.6748046875,
      "file_path":"/jH0qqWMAQmVPRYBI8KioAcuLGXI.jpg",
      "height":1024,
      "iso_639_1":"hu",
      "vote_average":0.0,
      "vote_count":0,
      "width":691
    },
    {
      "aspect_ratio":0.6666666666666666,
      "file_path":"/6dAfEtYZGv3hbQ3o3SlAUpS6aQT.jpg",
      "height":3000,
      "iso_639_1":"en",
      "vote_average":0.0,
      "vote_count":0,
      "width":2000
    }
  ]
}